Case Study: Expansion of Fcγ Receptor IIIa-Positive Macrophages, Ficolin 1-Positive Monocyte-Derived Dendritic Cells, and Plasmacytoid Dendritic Cells Associated With Severe Skin Disease in Systemic S
…
We don’t have any information on row data.

row_data <- tibble()

Column (sample & cell) data

sample_data <-
    ## from the hca sample annotation...
    s |>
    select(
        where(column_is_informative) & where(is.atomic)
    )

sample_data
## # A tibble: 22 × 13
##    entryId       dates…¹ dates…² dates…³ donor…⁴ donor…⁵ donor…⁶ donor…⁷ proto…⁸
##    <chr>         <chr>   <chr>   <chr>   <chr>   <chr>   <chr>   <chr>   <chr>  
##  1 13867e2b-3d6… 2022-0… 2022-0… 2022-0… male    normal  SC4     54      10x 3'…
##  2 17e5b23e-ae7… 2022-0… 2022-0… 2022-0… female  normal  SC18    66      10x 3'…
##  3 1c9da06c-f3c… 2022-0… 2022-0… 2022-0… female  diffus… SC86    40      10x 3'…
##  4 352e5090-526… 2022-0… 2022-0… 2022-0… male    normal  SC34    24      10x 3'…
##  5 3dbd8d4f-60a… 2022-0… 2022-0… 2022-0… female  diffus… SC185   41      10x 3'…
##  6 6cbb78a8-99f… 2022-0… 2022-0… 2022-0… female  normal  SC33    62      10x 3'…
##  7 7f8f07c5-ba5… 2022-0… 2022-0… 2022-0… male    diffus… SC70    60      10x 3'…
##  8 899cafa3-37f… 2022-0… 2022-0… 2022-0… female  diffus… SC49    61      10x 3'…
##  9 8fea7135-0e1… 2022-0… 2022-0… 2022-0… female  normal  SC68    48      10x 3'…
## 10 a8ba5997-f5d… 2022-0… 2022-0… 2022-0… male    normal  SC125   61      10x 3'…
## # … with 12 more rows, 4 more variables: samples.disease <chr>,
## #   samples.id <chr>, specimens.disease <chr>, specimens.id <chr>, and
## #   abbreviated variable names ¹​dates.lastModifiedDate, ²​dates.submissionDate,
## #   ³​dates.updateDate, ⁴​donorOrganisms.biologicalSex, ⁵​donorOrganisms.disease,
## #   ⁶​donorOrganisms.id, ⁷​donorOrganisms.organismAge.value,
## #   ⁸​protocols.libraryConstructionApproach
…
