Case Study: Single cell transcriptomics of human epidermis identifies basal stem cell transition states • HCACaseStudies
…
Row, sample, and cell annotations

Row (gene) data

row_data <-
    local_files |>
    slice(1) |>
    pull("local.genesPath") |>
    readr::read_tsv(
        col_names = c("ensembl_id", "hugo_symbol"),
        show_col_types = FALSE
    )

row_data
## # A tibble: 33,694 × 2
##    ensembl_id      hugo_symbol  
##    <chr>           <chr>        
##  1 ENSG00000243485 RP11-34P13.3 
##  2 ENSG00000237613 FAM138A      
##  3 ENSG00000186092 OR4F5        
##  4 ENSG00000238009 RP11-34P13.7 
##  5 ENSG00000239945 RP11-34P13.8 
##  6 ENSG00000239906 RP11-34P13.14
##  7 ENSG00000241599 RP11-34P13.9 
##  8 ENSG00000279928 FO538757.3   
##  9 ENSG00000279457 FO538757.2   
## 10 ENSG00000228463 AP006222.2   
## # … with 33,684 more rows
…
cell_barcodes <- 
    local_files |>
    pull("local.barcodesPath") |>
    lapply(readLines)

sampleId <- pull(local_files, "local.sampleId")
cell_data <- tibble(
    local.sampleId = rep(sampleId, lengths(cell_barcodes)),
    local.barcodes = unlist(cell_barcodes, use.names = FALSE)
)

cell_data
## # A tibble: 17,553 × 2
##    local.sampleId local.barcodes    
##    <chr>          <chr>             
##  1 GSM4431904     AAACCTGAGGTGTTAA-1
##  2 GSM4431904     AAACCTGAGTGCGATG-1
##  3 GSM4431904     AAACCTGCACTACAGT-1
##  4 GSM4431904     AAACCTGCACTTAACG-1
##  5 GSM4431904     AAACCTGCAGACTCGC-1
##  6 GSM4431904     AAACCTGCAGCCAATT-1
##  7 GSM4431904     AAACCTGCATAGGATA-1
##  8 GSM4431904     AAACCTGCATGGTCTA-1
##  9 GSM4431904     AAACCTGCATTATCTC-1
## 10 GSM4431904     AAACCTGTCACAATGC-1
## # … with 17,543 more rows
…
