Case Study: The myogenesis program drives clonal selection and drug resistance in rhabdomyosarcoma • HCACaseStudies
…
        local.filePath = file.path(exdir, tar_files),
        ## local.fileType becomes one of barcodesPath, genesPath, matrixPath
        local.fileType = sub(".*_([[:alpha:]]*).*", "\\1Path", tar_files),
        local.sampleId = sub("([^_]*).*", "\\1", tar_files)
    ) |>
    ## each 'sampleId' has a barcodesPath, genesPath, and matrixPath
    pivot_wider(
        names_from = local.fileType,
        names_prefix = "local.",
        values_from = "local.filePath"
    )
## 64 samples
local_files |>
    mutate(across(ends_with("Path"), basename))
## # A tibble: 64 × 7
##    local.sampleId local.barcodesPath     local…¹ local…² local…³ local…⁴ local…⁵
##    <chr>          <chr>                  <chr>   <chr>   <chr>   <chr>   <chr>  
##  1 GSM5293229     GSM5293229_1634977_DY… GSM529… GSM529… NA      NA      NA     
##  2 GSM5390456     GSM5390456_1681824_DY… GSM539… GSM539… NA      NA      NA     
##  3 GSM5390457     GSM5390457_1801665_DY… GSM539… GSM539… NA      NA      NA     
##  4 GSM5390458     GSM5390458_1801663_DY… GSM539… GSM539… NA      NA      NA     
##  5 GSM5390459     GSM5390459_1801661_DY… GSM539… GSM539… NA      NA      NA     
##  6 GSM5390460     GSM5390460_1771480_DY… GSM539… GSM539… NA      NA      NA     
##  7 GSM5390461     GSM5390461_1782334_DY… GSM539… GSM539… NA      NA      NA     
##  8 GSM5390462     GSM5390462_1782335_DY… GSM539… GSM539… NA      NA      NA     
##  9 GSM5390463     GSM5390463_1782332_DY… GSM539… GSM539… NA      NA      NA     
## 10 GSM5390464     GSM5390464_1763618_DY… GSM539… GSM539… NA      NA      NA     
## # … with 54 more rows, and abbreviated variable names ¹​local.featuresPath,
## #   ²​local.matrixPath, ³​local.selPath, ⁴​local.fragmentsPath, ⁵​local.peaksPath
…
## Remove files with NA in featuresPath and/or barcodesPath
local_files2 <- local_files |>
    filter(!(is.na(local.featuresPath)))
gene_and_cell_counts <-
    local_files2 |>
    csv_tsv_count_lines("local.sampleId", "local.barcodesPath") |>
    rename(local.cellCount = local.lines) |>
    csv_tsv_count_lines("local.sampleId", "local.featuresPath") |>
    rename(local.geneCount = local.lines)
gene_and_cell_counts |>
    select(local.sampleId, local.geneCount, local.cellCount)
## # A tibble: 42 × 3
##    local.sampleId local.geneCount local.cellCount
##    <chr>                    <int>           <int>
##  1 GSM5293229               32738            4791
##  2 GSM5390456               32738            3947
##  3 GSM5390457               32738            9357
##  4 GSM5390458               32738            7328
##  5 GSM5390459               32738            6943
##  6 GSM5390460               32738            3901
##  7 GSM5390461               32738            7579
##  8 GSM5390462               32738            4754
##  9 GSM5390463               32738            7736
## 10 GSM5390464               32738            6356
## # … with 32 more rows
…
Row, sample, and cell annotations

Row (gene) data

row_data <- 
    local_files2 |>
    slice(1) |>
    pull("local.featuresPath") |>
    readr::read_tsv(
        col_names = c("ensembl_id", "hugo_symbol", "annotation"),
        show_col_types = FALSE
    )

row_data
## # A tibble: 32,738 × 3
##    ensembl_id      hugo_symbol   annotation     
##    <chr>           <chr>         <chr>          
##  1 ENSG00000243485 MIR1302-10    Gene Expression
##  2 ENSG00000237613 FAM138A       Gene Expression
##  3 ENSG00000186092 OR4F5         Gene Expression
##  4 ENSG00000238009 RP11-34P13.7  Gene Expression
##  5 ENSG00000239945 RP11-34P13.8  Gene Expression
##  6 ENSG00000237683 AL627309.1    Gene Expression
##  7 ENSG00000239906 RP11-34P13.14 Gene Expression
##  8 ENSG00000241599 RP11-34P13.9  Gene Expression
##  9 ENSG00000228463 AP006222.2    Gene Expression
## 10 ENSG00000237094 RP4-669L17.10 Gene Expression
## # … with 32,728 more rows
…
sample_data <-
    ## from the hca sample annotation...
    s |>
    select(
        where(column_is_informative) & where(is.atomic)
    ) |>
    ## ...and local computations, e.g.,gene and cell counts
    left_join(
        gene_and_cell_counts |>
        select(local.sampleId, local.cellCount, local.geneCount),
        by = c(samples.id = "local.sampleId")
    )

sample_data
## # A tibble: 37 × 26
##    entryId       dates…¹ dates…² dates…³ donor…⁴ donor…⁵ donor…⁶ donor…⁷ donor…⁸
##    <chr>         <chr>   <chr>   <chr>   <chr>   <chr>   <chr>   <chr>   <chr>  
##  1 0d3f6254-a19… 2022-0… 2022-0… 2022-0… female  adoles… alveol… SJRHB0… year   
##  2 122a0088-6b2… 2022-0… 2022-0… 2022-0… male    infant… embryo… SJRHB0… month  
##  3 1a72774f-c51… 2022-0… 2022-0… 2022-0… male    adoles… alveol… SJRHB0… year   
##  4 24b610c7-faa… 2022-0… 2022-0… 2022-0… female  child … embryo… SJRHB0… year   
##  5 263c6193-ad3… 2022-0… 2022-0… 2022-0… male    child … embryo… SJRHB0… year   
##  6 2c2cd63d-283… 2022-0… 2022-0… 2022-0… female  child … embryo… SJRHB0… year   
##  7 3224a93c-369… 2022-0… 2022-0… 2022-0… male    infant… alveol… SJRHB0… month  
##  8 3aad260e-e01… 2022-0… 2022-0… 2022-0… male    adoles… alveol… SJRHB0… year   
##  9 3b7c5d5a-429… 2022-0… 2022-0… 2022-0… female  child … embryo… SJRHB0… year   
## 10 412475b0-e28… 2022-0… 2022-0… 2022-0… male    adoles… alveol… SJRHB0… year   
## # … with 27 more rows, 17 more variables:
## #   donorOrganisms.organismAge.value <chr>, organoids.id <chr>,
## #   organoids.modelOrgan <chr>, samples.disease <chr>,
## #   samples.effectiveOrgan <chr>, samples.id <chr>, samples.modelOrgan <chr>,
## #   samples.organ <chr>, samples.preservationMethod <chr>,
## #   samples.sampleEntityType <chr>, samples.source <chr>,
## #   specimens.disease <chr>, specimens.id <chr>, specimens.organ <chr>, …

cell_barcodes <- 
    local_files2 |>
    pull("local.barcodesPath") |>
    lapply(readLines)

sampleId <- pull(local_files2, "local.sampleId")
cell_data <- tibble(
    local.sampleId = rep(sampleId, lengths(cell_barcodes)),
    local.barcodes = unlist(cell_barcodes, use.names = FALSE)
)

cell_data
## # A tibble: 288,740 × 2
##    local.sampleId local.barcodes    
##    <chr>          <chr>             
##  1 GSM5293229     AAACCTGAGCAGCCTC-1
##  2 GSM5293229     AAACCTGGTTGAGTTC-1
##  3 GSM5293229     AAACGGGAGAAACCGC-1
##  4 GSM5293229     AAACGGGAGAGTGACC-1
##  5 GSM5293229     AAACGGGAGATATACG-1
##  6 GSM5293229     AAACGGGAGCCCAACC-1
##  7 GSM5293229     AAACGGGAGCGATGAC-1
##  8 GSM5293229     AAACGGGAGGGCACTA-1
##  9 GSM5293229     AAACGGGCAATAGCGG-1
## 10 GSM5293229     AAACGGGCAGTGAGTG-1
## # … with 288,730 more rows
…
