Case Study: A Single-Cell Characterization of Human Post-implantation Embryos Cultured In Vitro Delineates Morphogenesis in Primary Syncytialization • hcaCaseStudies
…
sampleIds <- cellNames |>
    vapply(head, character(1), 1L)
barcodes <- cellNames |>
    vapply(tail, character(1), 1L)

cell_data <-
    bind_cols(meta, local.sampleIds = sampleIds, local.barcodes = barcodes)

cell_data
## # A tibble: 1,014 × 6
##    ...1            stage sample cluster local.sampleIds local.barcodes
##    <chr>           <chr> <chr>    <dbl> <chr>           <chr>         
##  1 HS081:AGTACAAGx E08   HSE081       1 HS081           AGTACAAGx     
##  2 HS081:AACCGAGAx E08   HSE081       1 HS081           AACCGAGAx     
##  3 HS081:AACGCTTAx E08   HSE081       1 HS081           AACGCTTAx     
##  4 HS081:ACAGCAGAx E08   HSE081       4 HS081           ACAGCAGAx     
##  5 HS081:ACGCTCGAx E08   HSE081       1 HS081           ACGCTCGAx     
##  6 HS081:AGAGTCAAx E08   HSE081       1 HS081           AGAGTCAAx     
##  7 HS081:ACCACTGTx E08   HSE081       1 HS081           ACCACTGTx     
##  8 HS081:GCGAGTAAx E08   HSE081       1 HS081           GCGAGTAAx     
##  9 HS081:TGAAGAGAx E08   HSE081       1 HS081           TGAAGAGAx     
## 10 HS081:TGGCTTCAx E08   HSE081       1 HS081           TGGCTTCAx     
## # … with 1,004 more rows
…
