Case Study: Single nucleus RNA-sequencing defines unexpected diversity of cholinergic neuron types in the adult mouse spinal cord • HCACaseStudies
…
row_data <- tibble()

Column (sample & cell) data

sample_data <-
    ## from the hca sample annotation...
    s |>
    select(
        where(column_is_informative) & where(is.atomic)
    )
    ## ...and local computations, e.g.,gene and cell counts

sample_data
## # A tibble: 36 × 8
##    entryId               dates…¹ dates…² dates…³ donor…⁴ donor…⁵ sampl…⁶ speci…⁷
##    <chr>                 <chr>   <chr>   <chr>   <chr>   <chr>   <chr>   <chr>  
##  1 0a16a424-03a4-4333-9… 2022-0… 2022-0… 2022-0… female  F4      Thorac… Thorac…
##  2 13ab02b8-bc58-4df3-9… 2022-0… 2022-0… 2022-0… male    M6      Lumbar… Lumbar…
##  3 1d3d095c-276d-4244-a… 2022-0… 2022-0… 2022-0… male    M3      Lumbar… Lumbar…
##  4 2995a0de-ba3e-4840-b… 2022-0… 2022-0… 2022-0… male    M3      Cervic… Cervic…
##  5 352bfaac-f8f2-4f7a-b… 2022-0… 2022-0… 2022-0… female  F6      Thorac… Thorac…
##  6 364ae99c-6b42-4662-8… 2022-0… 2022-0… 2022-0… male    M2      Thorac… Thorac…
##  7 372cf0b4-1652-485e-9… 2022-0… 2022-0… 2022-0… male    M1      Thorac… Thorac…
##  8 3b8b964b-9fa6-408e-b… 2022-0… 2022-0… 2022-0… female  F3      Cervic… Cervic…
##  9 3db92d06-7623-4b02-b… 2022-0… 2022-0… 2022-0… female  F5      Lumbar… Lumbar…
## 10 3ee314ad-c79c-4636-b… 2022-0… 2022-0… 2022-0… male    M6      Cervic… Cervic…
## # … with 26 more rows, and abbreviated variable names ¹​dates.lastModifiedDate,
## #   ²​dates.submissionDate, ³​dates.updateDate, ⁴​donorOrganisms.biologicalSex,
## #   ⁵​donorOrganisms.id, ⁶​samples.id, ⁷​specimens.id
…
all_dat <- readr::read_csv(all_dat_filePath)
## New names:
## Rows: 34231 Columns: 8
## ── Column specification
## ──────────────────────────────────────────────────────── Delimiter: "," chr
## (7): barcodes, sex, expt, types, newnames, cholinergictypes, skeletaltypes dbl
## (1): ...1
## ℹ Use `spec()` to retrieve the full column specification for this data. ℹ
## Specify the column types or set `show_col_types = FALSE` to quiet this message.
## • `` -> `...1`

cell_data <- all_dat[all_dat$barcodes %in% colnames(count_matrix),]

cell_data
## # A tibble: 16,041 × 8
##     ...1 barcodes                      sex   expt  types newna…¹ choli…² skele…³
##    <dbl> <chr>                         <chr> <chr> <chr> <chr>   <chr>   <chr>  
##  1     8 AAACGCTGTACCTAAC-1-thoracic_1 M     Thor… Chol… I6      Cholin… NA     
##  2    11 AAAGAACTCGTGTGGC-1-thoracic_1 M     Thor… Chol… I6      Cholin… NA     
##  3    12 AAAGGATGTCTGCATA-1-thoracic_1 M     Thor… Chol… I5      Cholin… NA     
##  4    16 AAAGGGCGTGGAGAAA-1-thoracic_1 M     Thor… Chol… S3      Skelet… Gamma …
##  5    20 AAAGTCCGTATGAAGT-1-thoracic_1 M     Thor… Chol… I4      Cholin… NA     
##  6    21 AAAGTCCGTTGATGTC-1-thoracic_1 M     Thor… Chol… I8      Cholin… NA     
##  7    22 AAAGTGAAGACCAACG-1-thoracic_1 M     Thor… Chol… I6      Cholin… NA     
##  8    24 AAATGGAGTCGATTAC-1-thoracic_1 M     Thor… Chol… I2      Cholin… NA     
##  9    25 AAATGGATCGGTCATA-1-thoracic_1 M     Thor… Chol… I3      Cholin… NA     
## 10    31 AACAACCCACATTACG-1-thoracic_1 M     Thor… Chol… V10     Viscer… NA     
## # … with 16,031 more rows, and abbreviated variable names ¹​newnames,
## #   ²​cholinergictypes, ³​skeletaltypes
…
