Case Study: Highly Parallel Genome-wide Expression Profiling of Individual Cells Using Nanoliter Droplets • hcaCaseStudies
…
Data files

The project has ‘fastq’ and ‘txt.gz’ files. There are nine txt.gz files but only 7 samples – there are 7 ‘GSM’ sample files, and two experiment-wide ‘GSE’ summary files

files0 <- files(project_filter)
files0
## # A tibble: 21 × 8
##    fileId                    name  fileF…¹    size version proje…² proje…³ url  
##    <chr>                     <chr> <chr>     <dbl> <chr>   <chr>   <chr>   <chr>
##  1 d1f2fdc4-a8ec-4f1b-922e-… SRR1… fastq.… 2.68e10 2022-0… Highly… 3c9d58… http…
##  2 ec073678-a2cf-42f4-b795-… SRR1… fastq.… 2.17e10 2022-0… Highly… 3c9d58… http…
##  3 6373d4f0-6cde-4de2-81b3-… GSE6… txt.gz  5.31e 7 2022-0… Highly… 3c9d58… http…
##  4 f961d8f8-4acc-40b1-8c00-… GSE6… txt.gz  3.32e 8 2022-0… Highly… 3c9d58… http…
##  5 1846aca6-3e65-480d-b2bc-… GSM1… txt.gz  1.03e 7 2022-0… Highly… 3c9d58… http…
##  6 47a54560-93cb-4f85-89fe-… SRR1… fastq.… 2.47e10 2022-0… Highly… 3c9d58… http…
##  7 8b563c2a-57e2-4e51-bedf-… SRR1… fastq.… 9.48e 9 2022-0… Highly… 3c9d58… http…
##  8 594b651d-ee86-4c89-a2f7-… GSM1… txt.gz  8.83e 6 2022-0… Highly… 3c9d58… http…
##  9 c731fa4b-f63f-4d18-b18e-… GSM1… txt.gz  9.56e 6 2022-0… Highly… 3c9d58… http…
## 10 33c36b9e-5a07-430e-a360-… GSM1… txt.gz  5.58e 6 2022-0… Highly… 3c9d58… http…
## # … with 11 more rows, and abbreviated variable names ¹​fileFormat,
## #   ²​projectTitle, ³​projectId
…
