Case Study: Single-cell RNA-seq reveals cell type-specific molecular and genetic associations to lupus • hcaCaseStudies
…
Data files

What types of files does the project have?

files1 <- files(project_filter)

files1
## # A tibble: 800 × 8
##    fileId                    name  fileF…¹    size version proje…² proje…³ url  
##    <chr>                     <chr> <chr>     <dbl> <chr>   <chr>   <chr>   <chr>
##  1 002c870e-da93-43bf-8d9f-… YS-J… fastq   4.78e10 2022-0… Single… 9fc006… http…
##  2 00623cac-3e1e-4d3a-bbc8-… YS-J… fastq   4.58e10 2022-0… Single… 9fc006… http…
##  3 008d4332-c293-4fff-ad0f-… YS-J… fastq   5.07e10 2022-0… Single… 9fc006… http…
##  4 00a7b47a-89ea-4bbe-9501-… YS-J… fastq   6.43e 9 2022-0… Single… 9fc006… http…
##  5 00bb0525-a7bb-472a-ae3f-… immv… fastq   1.58e10 2022-0… Single… 9fc006… http…
##  6 00c2d587-dfa4-4a89-9b5e-… YS-J… fastq   2.76e 9 2022-0… Single… 9fc006… http…
##  7 01adce11-5d8b-42e3-b930-… CLUE… fastq   2.02e 8 2022-0… Single… 9fc006… http…
##  8 01e09367-615c-4f8f-a0d9-… CLUE… fastq   6.12e 8 2022-0… Single… 9fc006… http…
##  9 0240b842-e0fc-4a11-990b-… YE_7… fastq   1.23e10 2022-0… Single… 9fc006… http…
## 10 02543105-abbb-4f5e-b32c-… CLUE… fastq   2.13e 9 2022-0… Single… 9fc006… http…
## # … with 790 more rows, and abbreviated variable names ¹​fileFormat,
## #   ²​projectTitle, ³​projectId
…
