Case Study: Single-cell Transcriptome Atlas of the Human Corpus Cavernosum • hcaCaseStudies
…
Data files

What types of files does the project have?

files1 <- files(project_filter)

files1
## # A tibble: 23 × 8
##    fileId                    name  fileF…¹    size version proje…² proje…³ url  
##    <chr>                     <chr> <chr>     <dbl> <chr>   <chr>   <chr>   <chr>
##  1 48879b15-921c-49c0-907e-… SRR1… fastq.… 6.65e 9 2022-0… Single… 5b910a… http…
##  2 d6a8d77c-0039-41c9-b5a8-… SRR1… fastq.… 2.37e10 2022-0… Single… 5b910a… http…
##  3 76506d2b-4fe2-4130-ba99-… SRR1… fastq.… 2.23e10 2022-0… Single… 5b910a… http…
##  4 41ee77b8-d908-49cd-bb2f-… SRR1… fastq.… 6.09e 9 2022-0… Single… 5b910a… http…
##  5 f74c196a-8f82-4312-9646-… GSE2… tar     1.77e 8 2022-0… Single… 5b910a… http…
##  6 896cc476-88f0-42fe-97d9-… SRR1… fastq.… 2.33e10 2022-0… Single… 5b910a… http…
##  7 26eada48-7446-4e7b-8891-… SRR1… fastq.… 2.52e10 2022-0… Single… 5b910a… http…
##  8 5d4e02e5-da34-44ab-b2dd-… SRR1… fastq.… 2.40e10 2022-0… Single… 5b910a… http…
##  9 34488f52-d477-429a-94be-… SRR1… fastq.… 4.79e 9 2022-0… Single… 5b910a… http…
## 10 d39a1587-addf-4dd3-8ff9-… SRR1… fastq.… 2.42e10 2022-0… Single… 5b910a… http…
## # … with 13 more rows, and abbreviated variable names ¹​fileFormat,
## #   ²​projectTitle, ³​projectId
…
