Case Study: Single-cell transcriptomic and proteomic analysis of Parkinson’s disease brains • hcaCaseStudies
…
Row (gene) data

## all 'genes' files are identical?
row_data <-
    local_files |>
    slice(1) |>
    pull("local.genesPath") |>
    readr::read_tsv(
        col_names = c("ensembl_id", "hugo_symbol", "annotation"),
        show_col_types = FALSE
        )

row_data
## # A tibble: 33,538 × 3
##    ensembl_id      hugo_symbol annotation     
##    <chr>           <chr>       <chr>          
##  1 ENSG00000243485 MIR1302-2HG Gene Expression
##  2 ENSG00000237613 FAM138A     Gene Expression
##  3 ENSG00000186092 OR4F5       Gene Expression
##  4 ENSG00000238009 AL627309.1  Gene Expression
##  5 ENSG00000239945 AL627309.3  Gene Expression
##  6 ENSG00000239906 AL627309.2  Gene Expression
##  7 ENSG00000241599 AL627309.4  Gene Expression
##  8 ENSG00000236601 AL732372.1  Gene Expression
##  9 ENSG00000284733 OR4F29      Gene Expression
## 10 ENSG00000235146 AC114498.1  Gene Expression
## # … with 33,528 more rows
…
sample_data |> DT::datatable()

cell_barcodes <-
    local_files |>
    pull("local.barcodesPath") |>
    lapply(readLines)

sampleId <- pull(local_files, "local.sampleId")
cell_data <- tibble(
    local.sampleId = rep(sampleId, lengths(cell_barcodes)),
    local.barcodes = unlist(cell_barcodes, use.names = FALSE)
)

cell_data
## # A tibble: 77,983 × 2
##    local.sampleId local.barcodes    
##    <chr>          <chr>             
##  1 GSM6106340     AAACCCAAGAATAACC-1
##  2 GSM6106340     AAACCCAAGTCATCCA-1
##  3 GSM6106340     AAACCCAGTAATCAGA-1
##  4 GSM6106340     AAACCCATCCATTCGC-1
##  5 GSM6106340     AAACGAAAGGAGTACC-1
##  6 GSM6106340     AAACGAACATGAAGCG-1
##  7 GSM6106340     AAACGAAGTGCCTACG-1
##  8 GSM6106340     AAACGAAGTGTTCATG-1
##  9 GSM6106340     AAACGAAGTTGCCAAT-1
## 10 GSM6106340     AAACGAAGTTGCTGAT-1
## # … with 77,973 more rows
…
